Initial Analysis and Model Performance
…
set.seed(987)

train_data <- resample_partition(train, c(test = 0.3, train = 0.7))
train_set <- as.tibble(train_data$train)
train_set

## # A tibble: 3,165 x 18
##      age job       marital education default balance housing loan  contact
##  * <int> <fct>     <fct>   <fct>     <fct>     <int> <fct>   <fct> <fct>  
##  1    30 unemploy~ married primary   no         1787 no      no    cellul~
##  2    33 services  married secondary no         4789 yes     yes   cellul~
##  3    35 manageme~ single  tertiary  no         1350 yes     no    cellul~
##  4    30 manageme~ married tertiary  no         1476 yes     yes   unknown
##  5    59 blue-col~ married secondary no            0 yes     no    unknown
##  6    36 self-emp~ married tertiary  no          307 yes     no    cellul~
##  7    39 technici~ married secondary no          147 yes     no    cellul~
##  8    41 entrepre~ married tertiary  no          221 yes     no    unknown
##  9    43 services  married primary   no          -88 yes     yes   cellul~
## 10    43 admin.    married secondary no          264 yes     no    cellul~
## # ... with 3,155 more rows, and 9 more variables: day <int>, month <fct>,
## #   duration <int>, campaign <int>, pdays <int>, previous <int>,
## #   poutcome <fct>, y <fct>, y_num <dbl>

test_set <- as.tibble(train_data$test)
test_set

## # A tibble: 1,356 x 18
##      age job       marital education default balance housing loan  contact
##  * <int> <fct>     <fct>   <fct>     <fct>     <int> <fct>   <fct> <fct>  
##  1    35 manageme~ single  tertiary  no          747 no      no    cellul~
##  2    39 services  married secondary no         9374 yes     no    unknown
##  3    36 technici~ married tertiary  no         1109 no      no    cellul~
##  4    31 blue-col~ married secondary no          360 yes     yes   cellul~
##  5    56 technici~ married secondary no         4073 no      no    cellul~
##  6    25 blue-col~ single  primary   no         -221 yes     no    unknown
##  7    44 services  single  secondary no          106 no      no    unknown
##  8    41 manageme~ married tertiary  no         5883 no      no    cellul~
##  9    53 admin.    married secondary no          105 no      yes   cellul~
## 10    49 technici~ married tertiary  no         1235 no      no    cellul~
## # ... with 1,346 more rows, and 9 more variables: day <int>, month <fct>,
## #   duration <int>, campaign <int>, pdays <int>, previous <int>,
## #   poutcome <fct>, y <fct>, y_num <dbl>
…
